[103.21.148.134_8105/index.html]
[backblue.gif]
[fade.gif]
[index.html]
[www.chinhphu.vn/templates/homeportal/libimages/favicon.ico]
[103.21.148.134_8105/images/icons/quochuy.png]
[103.21.148.134_8105/login.html]
[103.21.148.134_8105/images/icons/vpcp.png]
[103.21.148.134_8105/images/icons/nhaquanly_icon.png]
[103.21.148.134_8105/bo_co_quan.html]
[103.21.148.134_8105/1231562.d.delayed]
[103.21.148.134_8105/images/icons/cqcm_icon.png]
[103.21.148.134_8105/images/icons/businessman_icon.png]
[103.21.148.134_8105/doanhnghiep.html]
[103.21.148.134_8105/images/icons/phuhuynh_icon.png]
[103.21.148.134_8105/nguoidan.html]
[103.21.148.134_8105/quocte.html]
[103.21.148.134_8105/images/icons/globe_icon.png]
[thuvien.net/ioc-hcm/vendor/jquery/jquery.min.js]
[thuvien.net/ioc-hcm/vendor/bootstrap/js/bootstrap.bundle.min.js]
[thuvien.net/ioc-hcm/vendor/jquery-easing/jquery.easing.min.js]
[thuvien.net/ioc-hcm/js/stylish-portfolio.min.js]
[103.21.148.134_8105/index.html]
[thuvien.net/ioc-hcm/vendor/bootstrap/css/bootstrap.min.css]
[thuvien.net/ioc-hcm/vendor/font-awesome/css/font-awesome.min.css]
[fonts.googleapis.com/cssd3e4.css]
[thuvien.net/ioc-hcm/vendor/simple-line-icons/css/simple-line-icons.css]
[thuvien.net/ioc-hcm/img/bg-masthead.jpg]
[thuvien.net/ioc-hcm/img/bg-callout.jpg]
[thuvien.net/ioc-hcm/css/stylish-portfolio.min.css]
[thuvien.net/ioc-hcm/img/h_admin.png]
[thuvien.net/ioc-hcm/img/h_teacher.png]
[thuvien.net/ioc-hcm/img/h_students.png]
[thuvien.net/ioc-hcm/img/h_parents.png]
[thuvien.net/ioc-hcm/css/style.css]
[cdnjs.cloudflare.com/ajax/libs/font-awesome/4.7.0/css/font-awesome.min.css]
[unpkg.com/leaflet@1.3.1/dist/leaflet.css]
[cdnjs.cloudflare.com/ajax/libs/leaflet.markercluster/1.3.0/MarkerCluster.css]
[cdnjs.cloudflare.com/ajax/libs/leaflet.markercluster/1.3.0/MarkerCluster.Default.css]
[103.21.148.134_8105/css/app.css]
[cdnjs.cloudflare.com/ajax/libs/jquery/2.2.4/jquery.min.js]
[cdnjs.cloudflare.com/ajax/libs/select2/4.0.3/css/select2.min.css]
[cdnjs.cloudflare.com/ajax/libs/jqueryui/1.12.1/jquery-ui.css]
[103.21.148.134_8105/register.html]
[103.21.148.134_8105/password/reset.html]
[unpkg.com/leaflet@1.3.1/dist/leaflet.js]
[cdnjs.cloudflare.com/ajax/libs/leaflet.markercluster/1.3.0/leaflet.markercluster.js]
[cdnjs.cloudflare.com/ajax/libs/fuse.js/3.0.4/fuse.min.js]
[cdn.datatables.net/1.10.16/css/jquery.dataTables.min.css]
[cdn.datatables.net/1.10.16/js/jquery.dataTables.min.js]
[cdnjs.cloudflare.com/ajax/libs/select2/4.0.3/js/select2.min.js]
[103.21.148.134_8105/login.html]
[cdnjs.cloudflare.com/ajax/libs/jqueryui/1.12.1/jquery-ui.js]
[cdnjs.cloudflare.com/ajax/libs/slick-carousel/1.9.0/slick.css]
[cdnjs.cloudflare.com/ajax/libs/slick-carousel/1.9.0/slick-theme.css]
[103.21.148.134_8096/css/cbql.css]
[103.21.148.134_8105/js/app.js]
[103.21.148.134_8096/images/icons/quochuy.png]
[103.21.148.134_8105/images/cqcm_vpcp.png]
[cdnjs.cloudflare.com/ajax/libs/Chart.js/2.7.2/Chart.js]
[103.21.148.134_8096/images/manager/warning_icon.png]
[103.21.148.134_8096/images/manager/phone_icon.png]
[103.21.148.134_8096/images/manager/email_icon.png]
[103.21.148.134_8096/images/manager/ioffice_icon.png]
[103.21.148.134_8096/images/manager/oc_icon.png]
[www.chinhphu.vn/templates/govportal/bonganh/images/box_bgr_title.jpg]
[www.chinhphu.vn/templates/govportal/bonganh/images/icon.jpg]
[103.21.148.134_8105/templates/govportal/tinhthanh/images/icon.42.delayed]
[103.21.148.134_8105/bo_co_quan.html]
[103.21.148.134_8105/css/cbql.css]
[103.21.148.134_8105/images/manager/box_bgr_title.jpg]
[cdnjs.cloudflare.com/ajax/libs/slick-carousel/1.9.0/slick.min.js]
[103.21.148.134_8092/images/ldtbxh_banner/ldtbxg_doanhnghiep_banner.png]
[103.21.148.134_8105/images/manager/warning_icon.png]
[103.21.148.134_8105/images/manager/phone_icon.png]
[103.21.148.134_8105/images/manager/email_icon.png]
[103.21.148.134_8105/images/manager/ioffice_icon.png]
[103.21.148.134_8105/images/manager/oc_icon.png]
[103.21.148.134_8105/doanhnghiep.html]
[103.21.148.134_8092/images/ldtbxh_banner/ldtbxg_nguoidan_banner.png]
[baochinhphu.vn/Uploaded/lethithuyan/2018_07_03/LTHT37.jpg]
[103.21.148.134_8105/nguoidan.html]
[103.21.148.134_8090/css/cbql.css]
[code.jquery.com/jquery-3.3.1.min.js]
[103.21.148.134_8105/images/ketnoi_vpcp.png]
[103.21.148.134_8105/images/icons/vpcp_ketnoi_01.png]
[103.21.148.134_8105/images/icons/vpcp_ketnoi_02.png]
[103.21.148.134_8105/images/icons/vpcp_ketnoi_03.png]
[103.21.148.134_8105/images/icons/vpcp_ketnoi_04.png]
[103.21.148.134_8105/quocte.html]
[demo.smartschool.vn/api/users/setcookie/gv.html]
[demo.smartschool.vn/smartschool.html]
[demo.smartschool.vn/api/users/setcookie/hs.html]
[cdnjs.cloudflare.com/ajax/libs/font-awesome/4.7.0/css/font-awesome.min.css]
[unpkg.com/leaflet@1.3.1/dist/images/layers.png]
[unpkg.com/leaflet@1.3.1/dist/images/layers-2x.png]
[unpkg.com/leaflet@1.3.1/dist/images/marker-icon.png]
[unpkg.com/leaflet@1.3.1/dist/leaflet.css]
[cdnjs.cloudflare.com/ajax/libs/leaflet.markercluster/1.3.0/MarkerCluster.css]
[cdnjs.cloudflare.com/ajax/libs/leaflet.markercluster/1.3.0/MarkerCluster.Default.css]
[fonts.googleapis.com/css72a1.css]
[103.21.148.134_8105/css/app.css]
[cdnjs.cloudflare.com/ajax/libs/select2/4.0.3/css/select2.min.css]
[cdnjs.cloudflare.com/ajax/libs/jqueryui/1.12.1/images/ui-icons_444444_256x240.png]
[cdnjs.cloudflare.com/ajax/libs/jqueryui/1.12.1/images/ui-icons_555555_256x240.png]
[cdnjs.cloudflare.com/ajax/libs/jqueryui/1.12.1/images/ui-icons_ffffff_256x240.png]
[cdnjs.cloudflare.com/ajax/libs/jqueryui/1.12.1/images/ui-icons_777620_256x240.png]
[cdnjs.cloudflare.com/ajax/libs/jqueryui/1.12.1/images/ui-icons_cc0000_256x240.png]
[cdnjs.cloudflare.com/ajax/libs/jqueryui/1.12.1/jquery-ui.css]
[cdnjs.cloudflare.com/ajax/libs/jqueryui/1.12.1/images/ui-icons_777777_256x240.png]
[103.21.148.134_8105/register.html]
[103.21.148.134_8105/password/reset.html]
[cdn.datatables.net/1.10.16/images/sort_both.png]
[cdn.datatables.net/1.10.16/images/sort_asc.png]
[cdn.datatables.net/1.10.16/images/sort_desc.png]
[cdn.datatables.net/1.10.16/images/sort_asc_disabled.png]
[cdn.datatables.net/1.10.16/images/sort_desc_disabled.png]
[cdn.datatables.net/1.10.16/css/jquery.dataTables.min.css]
[cdnjs.cloudflare.com/ajax/libs/slick-carousel/1.9.0/slick.css]
[cdnjs.cloudflare.com/ajax/libs/slick-carousel/1.9.0/ajax-loader.gif]
[cdnjs.cloudflare.com/ajax/libs/slick-carousel/1.9.0/fonts/slick.eot]
[cdnjs.cloudflare.com/ajax/libs/slick-carousel/1.9.0/fonts/slickd41d.eot]
[cdnjs.cloudflare.com/ajax/libs/slick-carousel/1.9.0/fonts/slick.woff]
[cdnjs.cloudflare.com/ajax/libs/slick-carousel/1.9.0/fonts/slick.ttf]
[cdnjs.cloudflare.com/ajax/libs/slick-carousel/1.9.0/slick-theme.css]
[cdnjs.cloudflare.com/ajax/libs/slick-carousel/1.9.0/fonts/slick.svg]
[103.21.148.134_8096/img/h_admin.aa.delayed]
[103.21.148.134_8096/img/h_teacher.png]
[103.21.148.134_8096/img/h_students.png]
[103.21.148.134_8096/img/h_parents.png]
[103.21.148.134_8096/images/manager/quangninhmap_1.png]
[103.21.148.134_8096/images/manager/quangninhmap_2.png]
[103.21.148.134_8096/css/cbql.css]
[103.21.148.134_8105/images/baocao/index.html]
[103.21.148.134_8105/img/h_admin.b0.delayed]
[103.21.148.134_8105/img/h_teacher.png]
[103.21.148.134_8105/img/h_students.png]
[103.21.148.134_8105/img/h_parents.png]
[103.21.148.134_8105/images/icons/ttdh_1.png]
[103.21.148.134_8105/images/icons/ttdh_2.png]
[103.21.148.134_8105/css/cbql.css]
[103.21.148.134_8105/baocao/index.html]
[103.21.148.134_8090/img/h_admin.b6.delayed]
[103.21.148.134_8090/img/h_teacher.png]
[103.21.148.134_8090/img/h_students.png]
[103.21.148.134_8090/img/h_parents.png]
[103.21.148.134_8090/images/manager/quangninhmap_1.png]
[103.21.148.134_8090/images/manager/quangninhmap_2.png]
[103.21.148.134_8090/css/cbql.css]
[www.chinhphu.vn/templates/govportal/bonganh/css/bo_nganh.html]
[sense-apac-demo.ipc-global.com/sense/app/a1b1f438-f0fc-4b29-8a17-53c2f111a34f]
[cdnjs.cloudflare.com/ajax/libs/slick-carousel/1.9.0/fonts/slick.svg]
